%YAML 1.1
%TAG !u! tag:unity3d.com,2011:
--- !u!74 &7400000
AnimationClip:
  m_ObjectHideFlags: 0
  m_PrefabParentObject: {fileID: 0}
  m_PrefabInternal: {fileID: 0}
  m_Name: PlayerIdleLD
  serializedVersion: 6
  m_Legacy: 0
  m_Compressed: 0
  m_UseHighQualityCurve: 1
  m_RotationCurves: []
  m_CompressedRotationCurves: []
  m_EulerCurves: []
  m_PositionCurves: []
  m_ScaleCurves: []
  m_FloatCurves: []
  m_PPtrCurves:
  - curve:
    - time: 0
      value: {fileID: 21300000, guid: 3ce5dafbd0fe4094fb633e965705d249, type: 3}
    - time: 0.02
      value: {fileID: 21300002, guid: 3ce5dafbd0fe4094fb633e965705d249, type: 3}
    - time: 0.04
      value: {fileID: 21300004, guid: 3ce5dafbd0fe4094fb633e965705d249, type: 3}
    - time: 0.06
      value: {fileID: 21300006, guid: 3ce5dafbd0fe4094fb633e965705d249, type: 3}
    - time: 0.08
      value: {fileID: 21300008, guid: 3ce5dafbd0fe4094fb633e965705d249, type: 3}
    - time: 0.1
      value: {fileID: 21300010, guid: 3ce5dafbd0fe4094fb633e965705d249, type: 3}
    - time: 0.12
      value: {fileID: 21300012, guid: 3ce5dafbd0fe4094fb633e965705d249, type: 3}
    - time: 0.14
      value: {fileID: 21300014, guid: 3ce5dafbd0fe4094fb633e965705d249, type: 3}
    - time: 0.16
      value: {fileID: 21300016, guid: 3ce5dafbd0fe4094fb633e965705d249, type: 3}
    - time: 0.18
      value: {fileID: 21300018, guid: 3ce5dafbd0fe4094fb633e965705d249, type: 3}
    - time: 0.2
      value: {fileID: 21300020, guid: 3ce5dafbd0fe4094fb633e965705d249, type: 3}
    - time: 0.22
      value: {fileID: 21300022, guid: 3ce5dafbd0fe4094fb633e965705d249, type: 3}
    - time: 0.24
      value: {fileID: 21300024, guid: 3ce5dafbd0fe4094fb633e965705d249, type: 3}
    - time: 0.26
      value: {fileID: 21300026, guid: 3ce5dafbd0fe4094fb633e965705d249, type: 3}
    - time: 0.28
      value: {fileID: 21300028, guid: 3ce5dafbd0fe4094fb633e965705d249, type: 3}
    - time: 0.3
      value: {fileID: 21300030, guid: 3ce5dafbd0fe4094fb633e965705d249, type: 3}
    - time: 0.32
      value: {fileID: 21300032, guid: 3ce5dafbd0fe4094fb633e965705d249, type: 3}
    - time: 0.34
      value: {fileID: 21300034, guid: 3ce5dafbd0fe4094fb633e965705d249, type: 3}
    - time: 0.36
      value: {fileID: 21300036, guid: 3ce5dafbd0fe4094fb633e965705d249, type: 3}
    - time: 0.38
      value: {fileID: 21300038, guid: 3ce5dafbd0fe4094fb633e965705d249, type: 3}
    - time: 0.4
      value: {fileID: 21300040, guid: 3ce5dafbd0fe4094fb633e965705d249, type: 3}
    - time: 0.42
      value: {fileID: 21300042, guid: 3ce5dafbd0fe4094fb633e965705d249, type: 3}
    - time: 0.44
      value: {fileID: 21300044, guid: 3ce5dafbd0fe4094fb633e965705d249, type: 3}
    - time: 0.46
      value: {fileID: 21300046, guid: 3ce5dafbd0fe4094fb633e965705d249, type: 3}
    - time: 0.48
      value: {fileID: 21300048, guid: 3ce5dafbd0fe4094fb633e965705d249, type: 3}
    - time: 0.5
      value: {fileID: 21300050, guid: 3ce5dafbd0fe4094fb633e965705d249, type: 3}
    - time: 0.52
      value: {fileID: 21300052, guid: 3ce5dafbd0fe4094fb633e965705d249, type: 3}
    - time: 0.54
      value: {fileID: 21300054, guid: 3ce5dafbd0fe4094fb633e965705d249, type: 3}
    - time: 0.56
      value: {fileID: 21300056, guid: 3ce5dafbd0fe4094fb633e965705d249, type: 3}
    - time: 0.58
      value: {fileID: 21300058, guid: 3ce5dafbd0fe4094fb633e965705d249, type: 3}
    - time: 0.6
      value: {fileID: 21300060, guid: 3ce5dafbd0fe4094fb633e965705d249, type: 3}
    - time: 0.62
      value: {fileID: 21300062, guid: 3ce5dafbd0fe4094fb633e965705d249, type: 3}
    - time: 0.64
      value: {fileID: 21300064, guid: 3ce5dafbd0fe4094fb633e965705d249, type: 3}
    - time: 0.66
      value: {fileID: 21300066, guid: 3ce5dafbd0fe4094fb633e965705d249, type: 3}
    - time: 0.68
      value: {fileID: 21300068, guid: 3ce5dafbd0fe4094fb633e965705d249, type: 3}
    - time: 0.7
      value: {fileID: 21300070, guid: 3ce5dafbd0fe4094fb633e965705d249, type: 3}
    - time: 0.72
      value: {fileID: 21300072, guid: 3ce5dafbd0fe4094fb633e965705d249, type: 3}
    - time: 0.74
      value: {fileID: 21300074, guid: 3ce5dafbd0fe4094fb633e965705d249, type: 3}
    - time: 0.76
      value: {fileID: 21300076, guid: 3ce5dafbd0fe4094fb633e965705d249, type: 3}
    - time: 0.78
      value: {fileID: 21300078, guid: 3ce5dafbd0fe4094fb633e965705d249, type: 3}
    - time: 0.8
      value: {fileID: 21300080, guid: 3ce5dafbd0fe4094fb633e965705d249, type: 3}
    - time: 0.82
      value: {fileID: 21300082, guid: 3ce5dafbd0fe4094fb633e965705d249, type: 3}
    - time: 0.84
      value: {fileID: 21300084, guid: 3ce5dafbd0fe4094fb633e965705d249, type: 3}
    - time: 0.86
      value: {fileID: 21300086, guid: 3ce5dafbd0fe4094fb633e965705d249, type: 3}
    - time: 0.88
      value: {fileID: 21300088, guid: 3ce5dafbd0fe4094fb633e965705d249, type: 3}
    - time: 0.9
      value: {fileID: 21300090, guid: 3ce5dafbd0fe4094fb633e965705d249, type: 3}
    - time: 0.92
      value: {fileID: 21300092, guid: 3ce5dafbd0fe4094fb633e965705d249, type: 3}
    - time: 0.94
      value: {fileID: 21300094, guid: 3ce5dafbd0fe4094fb633e965705d249, type: 3}
    - time: 0.96
      value: {fileID: 21300096, guid: 3ce5dafbd0fe4094fb633e965705d249, type: 3}
    - time: 0.98
      value: {fileID: 21300098, guid: 3ce5dafbd0fe4094fb633e965705d249, type: 3}
    attribute: m_Sprite
    path: 
    classID: 212
    script: {fileID: 0}
  m_SampleRate: 50
  m_WrapMode: 0
  m_Bounds:
    m_Center: {x: 0, y: 0, z: 0}
    m_Extent: {x: 0, y: 0, z: 0}
  m_ClipBindingConstant:
    genericBindings:
    - serializedVersion: 2
      path: 0
      attribute: 0
      script: {fileID: 0}
      typeID: 212
      customType: 23
      isPPtrCurve: 1
    pptrCurveMapping:
    - {fileID: 21300000, guid: 3ce5dafbd0fe4094fb633e965705d249, type: 3}
    - {fileID: 21300002, guid: 3ce5dafbd0fe4094fb633e965705d249, type: 3}
    - {fileID: 21300004, guid: 3ce5dafbd0fe4094fb633e965705d249, type: 3}
    - {fileID: 21300006, guid: 3ce5dafbd0fe4094fb633e965705d249, type: 3}
    - {fileID: 21300008, guid: 3ce5dafbd0fe4094fb633e965705d249, type: 3}
    - {fileID: 21300010, guid: 3ce5dafbd0fe4094fb633e965705d249, type: 3}
    - {fileID: 21300012, guid: 3ce5dafbd0fe4094fb633e965705d249, type: 3}
    - {fileID: 21300014, guid: 3ce5dafbd0fe4094fb633e965705d249, type: 3}
    - {fileID: 21300016, guid: 3ce5dafbd0fe4094fb633e965705d249, type: 3}
    - {fileID: 21300018, guid: 3ce5dafbd0fe4094fb633e965705d249, type: 3}
    - {fileID: 21300020, guid: 3ce5dafbd0fe4094fb633e965705d249, type: 3}
    - {fileID: 21300022, guid: 3ce5dafbd0fe4094fb633e965705d249, type: 3}
    - {fileID: 21300024, guid: 3ce5dafbd0fe4094fb633e965705d249, type: 3}
    - {fileID: 21300026, guid: 3ce5dafbd0fe4094fb633e965705d249, type: 3}
    - {fileID: 21300028, guid: 3ce5dafbd0fe4094fb633e965705d249, type: 3}
    - {fileID: 21300030, guid: 3ce5dafbd0fe4094fb633e965705d249, type: 3}
    - {fileID: 21300032, guid: 3ce5dafbd0fe4094fb633e965705d249, type: 3}
    - {fileID: 21300034, guid: 3ce5dafbd0fe4094fb633e965705d249, type: 3}
    - {fileID: 21300036, guid: 3ce5dafbd0fe4094fb633e965705d249, type: 3}
    - {fileID: 21300038, guid: 3ce5dafbd0fe4094fb633e965705d249, type: 3}
    - {fileID: 21300040, guid: 3ce5dafbd0fe4094fb633e965705d249, type: 3}
    - {fileID: 21300042, guid: 3ce5dafbd0fe4094fb633e965705d249, type: 3}
    - {fileID: 21300044, guid: 3ce5dafbd0fe4094fb633e965705d249, type: 3}
    - {fileID: 21300046, guid: 3ce5dafbd0fe4094fb633e965705d249, type: 3}
    - {fileID: 21300048, guid: 3ce5dafbd0fe4094fb633e965705d249, type: 3}
    - {fileID: 21300050, guid: 3ce5dafbd0fe4094fb633e965705d249, type: 3}
    - {fileID: 21300052, guid: 3ce5dafbd0fe4094fb633e965705d249, type: 3}
    - {fileID: 21300054, guid: 3ce5dafbd0fe4094fb633e965705d249, type: 3}
    - {fileID: 21300056, guid: 3ce5dafbd0fe4094fb633e965705d249, type: 3}
    - {fileID: 21300058, guid: 3ce5dafbd0fe4094fb633e965705d249, type: 3}
    - {fileID: 21300060, guid: 3ce5dafbd0fe4094fb633e965705d249, type: 3}
    - {fileID: 21300062, guid: 3ce5dafbd0fe4094fb633e965705d249, type: 3}
    - {fileID: 21300064, guid: 3ce5dafbd0fe4094fb633e965705d249, type: 3}
    - {fileID: 21300066, guid: 3ce5dafbd0fe4094fb633e965705d249, type: 3}
    - {fileID: 21300068, guid: 3ce5dafbd0fe4094fb633e965705d249, type: 3}
    - {fileID: 21300070, guid: 3ce5dafbd0fe4094fb633e965705d249, type: 3}
    - {fileID: 21300072, guid: 3ce5dafbd0fe4094fb633e965705d249, type: 3}
    - {fileID: 21300074, guid: 3ce5dafbd0fe4094fb633e965705d249, type: 3}
    - {fileID: 21300076, guid: 3ce5dafbd0fe4094fb633e965705d249, type: 3}
    - {fileID: 21300078, guid: 3ce5dafbd0fe4094fb633e965705d249, type: 3}
    - {fileID: 21300080, guid: 3ce5dafbd0fe4094fb633e965705d249, type: 3}
    - {fileID: 21300082, guid: 3ce5dafbd0fe4094fb633e965705d249, type: 3}
    - {fileID: 21300084, guid: 3ce5dafbd0fe4094fb633e965705d249, type: 3}
    - {fileID: 21300086, guid: 3ce5dafbd0fe4094fb633e965705d249, type: 3}
    - {fileID: 21300088, guid: 3ce5dafbd0fe4094fb633e965705d249, type: 3}
    - {fileID: 21300090, guid: 3ce5dafbd0fe4094fb633e965705d249, type: 3}
    - {fileID: 21300092, guid: 3ce5dafbd0fe4094fb633e965705d249, type: 3}
    - {fileID: 21300094, guid: 3ce5dafbd0fe4094fb633e965705d249, type: 3}
    - {fileID: 21300096, guid: 3ce5dafbd0fe4094fb633e965705d249, type: 3}
    - {fileID: 21300098, guid: 3ce5dafbd0fe4094fb633e965705d249, type: 3}
  m_AnimationClipSettings:
    serializedVersion: 2
    m_AdditiveReferencePoseClip: {fileID: 0}
    m_AdditiveReferencePoseTime: 0
    m_StartTime: 0
    m_StopTime: 1
    m_OrientationOffsetY: 0
    m_Level: 0
    m_CycleOffset: 0
    m_HasAdditiveReferencePose: 0
    m_LoopTime: 1
    m_LoopBlend: 0
    m_LoopBlendOrientation: 0
    m_LoopBlendPositionY: 0
    m_LoopBlendPositionXZ: 0
    m_KeepOriginalOrientation: 0
    m_KeepOriginalPositionY: 1
    m_KeepOriginalPositionXZ: 0
    m_HeightFromFeet: 0
    m_Mirror: 0
  m_EditorCurves: []
  m_EulerEditorCurves: []
  m_HasGenericRootTransform: 0
  m_HasMotionFloatCurves: 0
  m_GenerateMotionCurves: 0
  m_Events: []
